[2026-05-23 21:24:37] info: TC_API_NEG_001 - POST to invalid endpoint
[2026-05-23 21:24:37] info: UserApiService.postToInvalidEndpoint
[2026-05-23 21:24:37] info: → GET https://reqres.in/api/invalid-endpoint-xyz | {"headers":{"Accept":"application/json","Content-Type":"application/json","x-api-key":"pub_6184fe809a0fa9dca94366e52019c85f4893f6e35b9c0818da778169ada7bcd3"},"params":{}}
[2026-05-23 21:24:38] info: ← 200 GET /api/invalid-endpoint-xyz | {"status":200,"data":{"page":1,"per_page":6,"total":12,"total_pages":2,"data":[{"id":1,"name":"cerulean","year":2000,"color":"#98B2D1","pantone_value":"15-4020"},{"id":2,"name":"fuchsia rose","year":2001,"color":"#C74375","pantone_value":"17-2031"},{"id":3,"name":"true red","year":2002,"color":"#BF1932","pantone_value":"19-1664"},{"id":4,"name":"aqua sky","year":2003,"color":"#7BC4C4","pantone_value":"14-4811"},{"id":5,"name":"tigerlily","year":2004,"color":"#E2583E","pantone_value":"17-1456"},{"id":6,"name":"blue turquoise","year":2005,"color":"#53B0AE","pantone_value":"15-5217"}],"support":{"url":"https://benhowdle.im/first-cto-playbook?utm_source=reqres&utm_medium=json&utm_campaign=referral","text":"Become a better CTO. A playbook of painful stories and practical advice from a two-time startup CTO."}}}
